*** Life<ConwayCell> 4x4 ***

Generation = 0, Population = 4.
....
.**.
.**.
....

Generation = 1, Population = 4.
....
.**.
.**.
....

*** Life<ConwayCell> 14x6 ***

Generation = 0, Population = 18.
......
......
*.....
***...
...*..
.....*
....*.
.*....
..*..*
.....*
..*.*.
....**
......
.*..**

Generation = 1, Population = 15.
......
......
*.....
***...
.**...
....*.
......
......
......
...***
...**.
...***
......
......

Generation = 2, Population = 13.
......
......
*.....
*.*...
*.**..
......
......
......
....*.
...*.*
..*...
...*.*
....*.
......

Generation = 3, Population = 14.
......
......
.*....
*.**..
..**..
......
......
......
....*.
...**.
..**..
...**.
....*.
......

Generation = 4, Population = 15.
......
......
.**...
...*..
.***..
......
......
......
...**.
..*.*.
..*...
..*.*.
...**.
......

Generation = 5, Population = 15.
......
......
..*...
...*..
..**..
..*...
......
......
...**.
..*.*.
.**...
..*.*.
...**.
......

*** Life<ConwayCell> 6x10 ***

Generation = 0, Population = 19.
*.....*...
*.**.....*
..**.***..
..**....*.
.....***..
.....*..*.

Generation = 1, Population = 19.
.*........
..****.*..
......***.
..**....*.
....*****.
.....*.*..

Generation = 2, Population = 23.
..***.....
..****.**.
.....**.*.
...**....*
...***..*.
....**.**.

Generation = 3, Population = 23.
..*..*....
..*....**.
..*...*.**
...*..****
......****
...*.****.

*** Life<ConwayCell> 13x8 ***

Generation = 0, Population = 9.
........
........
........
........
...*....
.....*..
........
....*...
........
...*..*.
.*......
*.......
...**...

Generation = 1, Population = 0.
........
........
........
........
........
........
........
........
........
........
........
........
........

*** Life<ConwayCell> 5x12 ***

Generation = 0, Population = 8.
..........*.
...*.......*
.*....*.*...
........*...
........*...

Generation = 2, Population = 2.
............
............
........*...
........*...
............

Generation = 4, Population = 0.
............
............
............
............
............

*** Life<ConwayCell> 13x5 ***

Generation = 0, Population = 8.
.*...
*...*
.....
.....
....*
.**.*
.....
.....
....*
.....
.....
.....
.....

Generation = 1, Population = 2.
.....
.....
.....
.....
...*.
...*.
.....
.....
.....
.....
.....
.....
.....

Generation = 2, Population = 0.
.....
.....
.....
.....
.....
.....
.....
.....
.....
.....
.....
.....
.....

*** Life<ConwayCell> 12x9 ***

Generation = 0, Population = 30.
....*...*
.*....*.*
.....*...
.***....*
*...*....
.*.*****.
..*.*...*
.........
**..*..**
.........
........*
*....*..*

Generation = 1, Population = 26.
.......*.
.....*.*.
.*.....*.
.****....
*.....**.
.**...**.
..*.*.**.
.*.*...**
.........
.......**
.........
.........

Generation = 2, Population = 27.
......*..
.......**
.*.**.*..
****..**.
*....***.
.***....*
.....*...
..**..***
.........
.........
.........
.........

Generation = 3, Population = 29.
.......*.
.....***.
**.****.*
*..*.....
*...**..*
.**.**.*.
.*..*.*.*
......**.
.......*.
.........
.........
.........

Generation = 4, Population = 30.
.......*.
........*
****.....
*.**..**.
*.*..**..
***....**
.****...*
.....**.*
......**.
.........
.........
.........

Generation = 5, Population = 34.
.........
.**......
*..*...*.
*...****.
*....*..*
*...*****
*..****.*
..*****.*
.....***.
.........
.........
.........

*** Life<ConwayCell> 8x10 ***

Generation = 0, Population = 39.
**.*.*.*..
****.....*
.*.*...*..
..*.*..*.*
.*.*.*..**
.**.*.****
*.*...*..*
***...**.*

Generation = 1, Population = 25.
*..**.....
...*..*.*.
*...*.....
.*..*.**.*
.*...*....
*...*.*...
*........*
*.*...***.

Generation = 2, Population = 26.
...**.....
...*.*....
...**.*.*.
**..*.*...
**..*..*..
**...*....
*....**.*.
.*.....**.

Generation = 3, Population = 26.
...**.....
..*..*....
..**..**..
***.*.*...
..*.*.*...
....**.*..
*....**.*.
......***.

Generation = 4, Population = 22.
...**.....
..*..**...
....*.**..
....*.*...
..*.*.**..
...**..*..
....*...*.
.....**.*.

Generation = 5, Population = 22.
...***....
......**..
...**..*..
....*.....
....*.**..
....*.***.
...**.*.*.
.....*.*..

Generation = 6, Population = 26.
....***...
......**..
...*****..
....*.**..
...**.*.*.
....*...*.
...**...*.
....****..

Generation = 7, Population = 22.
.....***..
...*......
...**...*.
........*.
...**.*.*.
........**
...*..*.*.
...*****..

*** Life<ConwayCell> 7x11 ***

Generation = 0, Population = 27.
.**.**.*..*
..*..*.*...
.*.....*.**
..**.......
.*....*.*..
.**.*......
**...*.*.**

Generation = 1, Population = 31.
.*****.....
..****.*.**
.*.*..*.*..
.**....***.
.*.........
..*..*****.
***........

Generation = 2, Population = 26.
.*...**....
.......***.
.*...**...*
**.....***.
.*.........
*.*...***..
.**...***..

Generation = 3, Population = 28.
......***..
.......***.
**....*...*
***...****.
..*...*..*.
*.*...*.*..
.**...*.*..

Generation = 4, Population = 28.
......*..*.
.........*.
*.*...*...*
*.*..**.***
*.**.**..*.
..**.**.**.
.**........

Generation = 5, Population = 20.
...........
.........**
.....****.*
*.*.*...*.*
...........
.....*****.
.***.......

Generation = 6, Population = 23.
...........
......*****
.....****.*
.....**.*..
.....**....
..*...***..
..*...***..

*** Life<ConwayCell> 12x5 ***

Generation = 0, Population = 26.
.....
.***.
****.
.*..*
*.*..
...**
.....
*....
*.*.*
*.***
.*.**
*.*..

Generation = 4, Population = 15.
.....
.....
.....
.....
....*
.***.
..**.
.*...
***..
*.**.
*...*
.....

*** Life<ConwayCell> 9x12 ***

Generation = 0, Population = 22.
..*......*..
............
....*..*...*
....**..*...
..**.....*.*
.*..*...**..
*..*...*.*.*
............
...........*

Generation = 3, Population = 16.
............
............
.....*......
...*..*..*..
..*..*.*....
..*.*...*.*.
...*....*.*.
.........**.
............

*** Life<ConwayCell> 14x6 ***

Generation = 0, Population = 32.
*.....
..*...
.....*
..*...
*..*..
....**
.**.*.
*..***
**..**
....**
*..*..
.*.**.
*.*...
.*.***

Generation = 1, Population = 28.
......
......
......
......
...**.
.**.**
.**...
*.....
**....
**.*.*
..**.*
**.**.
*....*
.****.

Generation = 2, Population = 26.
......
......
......
......
..****
.*..**
*.**..
*.*...
..*...
*..*..
.....*
**.*.*
*....*
.****.

Generation = 3, Population = 26.
......
......
......
...**.
..**.*
.*...*
*.***.
..*...
..**..
......
***...
**...*
*....*
.****.

Generation = 4, Population = 25.
......
......
......
..***.
..**.*
.*...*
..***.
....*.
..**..
...*..
*.*...
..*...
*..*.*
.****.
