*** Life<FredkinCell> 31x35 ***

Generation = 0, Population = 59.
-----------------------------------
-----------------------------------
-----------------00--------------0-
-------------------0--------------0
-----------------------0-----------
----------------------------0-----0
----00----00-----0-----------------
------------0---------------------0
------------------------0----------
-0---------------------------------
---0-------------------------------
-----------------------------------
--0----------000--0---------0-0--0-
--------------------------------0--
-----------------------------------
-----------0-----0-------0---------
-----------------------------------
------0---0------------------------
----------------------00-----------
--------------0--------------0-----
-----------------------------------
---------------------0-----0----0--
---------------0---------0----0----
-----------------------------------
--------0---------0----------------
-0-----------0-----------------0---
--------0-----------0---0----------
-----0-----------------0-----0-----
---0-------------------------------
--------------0-----------------0--
-----------0---0----------------0--

Generation = 2, Population = 202.
-----------------00--------------0-
-------------------0--------------0
---------------01--00--0-------0---
-----------------1---0------0---0--
----00----00------0--0---0-------0-
------------0------0------0---0-0-0
--01--1001--00-0---0---00----------
-0--------1---0-------------0---0--
---000----00-----0----0---0--------
---1--------0---------------------0
-11--0-------000--0-----0---0-0--0-
-0------------------------------0--
0--10------012-2-1--0-----0-0-010--
-----------0-----0-------0----1---0
--0----------000--0---------0-0--0-
------0--01--0-0---0---0---0----0--
----------------------00-----------
----0------10-0--0-------0---0-----
--------------------01--10---------
------0---0-0---0----0---------00--
---------------0------00-0----0----
--------------0----0---0-1----1---0
--------0----0---00----0---10---1--
-0-----------0-------0-----0---00--
------0-0-0----00-------00----0----
---0-0-----0---0-------0---------0-
---0--0-0-0---------------0--------
-0-1---0-----00------0---0-0----0--
-0---1--0--0---0----0---0-------1--
-----0------0---0------0-----00---0
---0-----0-0---0-0------------0-2-0

Generation = 4, Population = 204.
-----------------22----0---------0-
----------------------------0-----0
----00----00-01--1---01------0---0-
------------0--1-------1------0-0-0
-------------------0----1--0-------
-0----------------------1-----0----
00-3--3003---210-01--0-----------0-
--------1-------0--1----------0-0-0
--1----------010--1-0--1------0--0-
-1---0----------------------1---0-0
----10-0--00-----1-----------------
-----------11----1-------0--------0
0-----0--010--0--311--0---0--0--011
-0----0---1-----------------0-----0
---1------------------01-----------
-------1-----212-------------------
--0----------111--0---------0-0--0-
--0---0---1---0------1-----0-------
---------------0--01-----010--0----
----------00-----10--------------1-
--------0---------0----------------
-0----0---0--0---1-----0-3--1-----0
--------0--0-------001121-1--1----1
-----0--------1--------1-----------
---10-------0-1-------0------------
-0---0---0----1--0---0-------------
----1------00---0---0---00--0-0-1--
-2-------0---------0-----0-0-----1-
-------00--0---0--0-------------3--
-1--------0--10---0---------1--11-2
---0---01--0---0---00---0---0-----2

*** Life<FredkinCell> 35x34 ***

Generation = 0, Population = 58.
----------------------------------
-----0-------0--------------------
-0-------0---------0----0---------
-----------------0--------0-------
----------------------------------
-0---------------------0---0------
-------------------------0-0--0---
--------0-------------------------
----------------------------------
------------0---------------------
-------------------------0---0----
----------------------------------
------------0----00----------0---0
--0--------------------------0----
------------------------0---------
-----------------0----------------
--0-------------------------------
---------------------0------------
---0-----0---------0----0---------
----------------------------------
---------------------0------------
----0------0---------0------------
--------0-------------------------
-----------0---------0------------
--------------0-------------------
--------------------------------0-
----------------------------------
--------0------------------------0
----------------------------------
-------------0---------0-0--------
----------------------------------
--------------------0--------0----
--------0------0----------0-------
----0------------0----------------
-----------0------000-------------

Generation = 2, Population = 205.
-0-------0---------0----0---------
---0---0---0---0-0--------0-------
---0---0---0-----1---00---1-------
-1---0-------0-0---1---01--10-----
-1-------0---------0----00-1--0---
---0----0--------0---0----1--0----
-----------------------1-0-211--0-
-0----0---0-0----------0---1------
---------------------------0-00---
--------0-0---0-------------------
------------1----00----0-----0-0-0
--0---------1----------------0----
----------0---001--10---00-0-2---0
0---0------------1---------0---0--
--1---------0----10---0---0--1---0
--1------------0---0-0-------0----
0--10----0---------0--------------
-----------------0-1---0----------
-01--0-0---0-----0----0---0-------
----0------0----------------------
---0----00-------------00---------
--0---0--0-0-0-----0-2-0----------
------0---0---0------0------------
----0----0-0-0-----0-0-0--------0-
--------0---0---0-----------------
--------0--0---------0--------0--1
--------------0-------------------
------0---0--0---------0-0-----010
----------------------------------
--------0--0---0----00-0-0-0-0---0
--------0------0----------0-------
----0--------0---00---00-0-0---0--
------0---00-0---1001---0---0-----
--0---0--------1---11--------0----
--------00-0-0-000-0-10---0-------

Generation = 4, Population = 200.
-0-------0---------0----0---------
-----0-------0---2-----0---1------
-1-----------1-0----1--0-1-01-0---
--------0----0-------10-------1---
----------------------------------
-1----------00-----1---1---2---0--
-1-------0---------0-1-3001----1--
----0-------0----0--------1-------
------------1----00----------2---0
-00-----0-------0------1---1-0----
---------------------0--1--0-20--0
--------0--------1----------------
--1-----0----12-3----10--2---4-1-0
0-----0-----1--------0---1-------0
---1-----0---------00---01--13----
-------------0-------0------------
0-----0-----0----11--1-------1---0
--1-1------1-----2---0---0---0----
-----0-01----0-0----0--00---0-----
-----------2-----1---0------------
--0-----------0--0-------1--------
0------10------0-0---4---0------0-
---01----1--0------0----0---------
-------00------0-0-------0-------1
----------0-------0--0------------
----0------0-0-------0-0-0--0---1-
--------1-------------------------
----0------11-------00---------2--
--------1-----01----------0-------
----0----1---------1-2-----0-0--1-
-----------1------101-------------
--------1-------1-------10--------
----1-------0-----2-1-1-------0---
0---0---1--------0---0-0-0--------
-------12-----000-----210-0-------

Generation = 6, Population = 464.
---0---0-0-0-1-0-1-0100001010-0---
---1---10--1-2-----1--1------01---
-1-1-----0-1-1-0-301-1120-20302-0-
-3---00---001--1-0--0--11---2--10-
---------0---0-0---201--0-030-11--
---00---0-012210-----11---1---1--0
---0---0---00-----12--0-00121-----
------0-0-0-21001-------1---01-1--
-1-------00---000---0--1-01--420--
1--1--0-0-0-1-0---1--1----13-0-0--
--1-----0---200-1210-0-0--1202-110
001-----2-0-2--00--0-0-0-1-1-0---0
1--10-1--1000-403-1--1--24-1140--2
0-1-0-----0--01--2-1-2-----1---1-2
103--0101--0110-0----101-1----1---
1-2-0-1-----0--0-1-2---0-----1---1
0-1221-1-00--00-1--11----1-0-3---0
1-1-1-1--0-1---1-4-------------0--
0-30-0-2-1011000-1-----------00--0
0-1-0--110-2-1---------1-----0--0-
1--1-0-120---1--1---0------00-----
0-1--0232100-0---2---4---2-0--0--1
-0---110---1------1---0--10-------
0---10122010-------1-------00--0-1
---01----1------0---1--10---------
--0-0-0020--00---0-01-----11---1-2
------0-1-----00--0--0----0-------
--0---0---13--1---0---1--0-00----1
------0-1-0111--10011---0---0-----
--0-0-001---0---00-32--00--0-01---
----1---21--100111---0----0---0---
0-----0-110---0--101--2--21--0--0-
--0---100-12---0---11--0--0-0---0-
0-------3-0----30----0--1--0------
----1013220--1-0-1---24321--0-0---

*** Life<FredkinCell> 35x32 ***

Generation = 0, Population = 59.
--------------------------------
----0-------------------------0-
----0-0-------------------------
--------------------------------
-------------0------------------
--------------------------------
-------------------------0------
-----------0-----------0--------
----------------------------0---
-----------------------0--------
--0----------------0------------
----------------------0---0-----
-------------------0-------0----
---------0-------0------------0-
-------------------0------------
--------------------------------
-0------------------------------
--------------------------0-----
-----------------------0--------
--------------00--------------0-
------0-------------------------
--------------0-------------0---
-0-----------00---------0------0
--------------0---------------0-
---0----0-----------------------
---------0----------------------
-----------------------------0--
---------0--------0-------------
-------------------000------0---
--------------------------------
------------0------0-0----0-0---
---0-------------------0--------
---------0-----0----------------
---------------------------0--0-
-------------------0----------0-

Generation = 1, Population = 187.
----0-------------------------0-
---0100----------------------0-0
---01--0----------------------0-
----0-0------0------------------
------------0-0-----------------
-------------0-----------0------
-----------0-----------00-0-----
----------0-0---------0-00--0---
-----------0---------------0-0--
--0----------------0--0-0---0---
-0-0--------------0-0-00--0-----
--0------------------0-0-0------
---------0-------00-0-0-----0-0-
--------0-0-----0-0--------0-0-0
---------0-------00-0---------0-
-0-----------------0------------
0-0-----------------------0-----
-0---------------------0-0-0----
--------------00------0-0-0---0-
------0------0110------0-----0-0
-----0-0-------0------------0-0-
-0----0-------10--------0--0-0-0
0-0---------0110-------0-0--0---
-0-0----0-----10--------0----0--
--0-0--0------0---------------0-
---0------0------------------0--
------------------0---------0-0-
--------0-0------0--00------00--
---------0---------1-10----0-0--
------------0-------0-----0-----
---0-------0-0----0---00-0---0--
--0-0----0--0--0---0-00-0-0-0---
---0----0-0---0-0------0---0--0-
---------0-----0---0------0-0010
------------------0-0------0-010

Generation = 2, Population = 194.
----1-0-------------------------
--0---1---------------------0---
--0-2-0-0----0------------------
----1-------------------------0-
----0-0----0---0---------0------
-----------0-----------0--------
-------------0---------1---00---
---------0---0-------0-0-1------
--0----------------0-----00---0-
-----------0---------010-00-----
0---0------------0-0-0-----00---
---------0-------0--0--1----0-0-
--0--------------1---0---0---0--
-------0---0---0---0--0---0-0---
-0---------------1-0-0-----0----
---------0-------0--------0---0-
---0---------------0---0--------
--------------00--------0---0-0-
-0----0--------------0---0------
------------012-10--------0-----
-0--0---0----00--------00------0
------------0--10---------0---0-
------0-0--01--10-----0---0--0-0
---------0--0-2-0---------------
-----00---0--01---------0----0-0
-------0-0-0--0---0-----------0-
---0----0----------000-----01--0
-------0-0-0----0---1-----------
------------0----00---10----010-
---0-----0--------0----0--------
---------00---00-0--0--10-0---0-
-0---0---------------1---0-0--0-
-------0---000---0---0----0-0-1-
---0-------------------0-0--11--
---------0-----0-0-0-0------0-2-

Generation = 3, Population = 440.
--00--10--------------------0---
-010-0-00----0-------------0-0--
-01-3-1--0--0-0-------------0-0-
--00-0--0--0-0-0---------0---0-0
---01--0--010-0-0------00-0---0-
----0-0---0100-0------0100-00---
---------0-0010------00-000110--
--0-----0-0-010----00--1-2-00-0-
-0-0-----0-0-0----0-0-0-01-0-0-0
0-0-0-----0-0----0--0--1----0-0-
-0-0-0---0-0----01--01---0-1-00-
0-0-0---0-0-----0-0--00-00--10-0
-0-0---0-0-0---00200---00---0---
-00---0-0-0-0-0-0-0100-0---0----
0-0----0-0-0---002-1------0---0-
-0-0----0-0-----010--0-0-0---0-0
--0-0----0----00-00-0-0---0-0---
-0-0--0------0110--0-0-----0---0
0-0--0-0----00-000--0-0-----0-0-
----0-0-0--012--210--0-00--0---0
0-00-0-0-0--0----0----0110------
-0--0-0-----1----0----000010---0
-----0----0121--10---0-0-0100-0-
-----0------103010----0-0-0-----
----011--0---1200-0----0-0--0-0-
---0-0--0-0-0-10-0--00--0--00--0
--0-0--0-0----0-0--1110---0120--
---0--0-0------0--0-2-00---0-000
---0---0-----0---1-1012-0--01-10
--0-0---01--0-00-0100-----0-00--
-0-0-0--0-10-011---0--0-10---010
0-0-0-00-0000000-----200-----0-0
-0-0-00-0-01-10-0-0-0100-0-01020
--0-0--0-0-000-0---0--0----0221-
---0----0-0---0-------00-0-010-0

Generation = 4, Population = 188.
----1-2------0------------------
0---1---1-----------------0-----
0-2-----0-0--------------0------
-----------1-----------0--------
---------0-------0----------0---
----1------------------2------0-
--0-0-0------------0-1-------1--
-------0-------0---1--0---01----
-------------1-----0----1--1----
---------0-------1-0-------0--1-
0-----0--------0---0---0-1------
-----------0------1---11--0---0-
-1-------------1------------1--0
-----0---------------1-1------0-
--1------------1---2------------
--------------00------0---0---0-
-0---00------------0-------0----
---------0----2--0----0-----0---
-0-----------10---------0--0---0
----------01--2---10------0-----
-011----0-0---------------------
---------00-------0-----1-2-----
-0---1---01------10-0--1---11---
---------00---41----------1-----
----1-20----0------000------1---
-----1-------02-------------1---
-0----------001----2-2--001-3---
---1-0-------0--------11------1-
---1----00------02-----0-0------
---------2-----------------0--0-
--------1------200-1--1121---1--
-------1-1--------00-------0----
-----1-----2-2-----012------2-3-
-----------------------0--01---0
---------0--0------0-0-1----2-2-

Generation = 5, Population = 436.
0--02--00---0-0-----------0-----
10102010200--0-------------0----
1--03--01--------------00-------
0-0-----00--0----0----0-00--0---
----1---0-01----0-0--------0-00-
--00200--0-------0-0-00-0---0--0
-0--1----------0--01---1--011---
--0-0---0----10-0-0-0--1021-00--
-------0-0--0-00-00-0-00-1--0-0-
0-----0-0-0--0-00---0--1000100-0
-0---0-0-0-0--0-01-10--1---1----
00----0---0-0----0---02-0--010--
0-0--0-----0--0-0-0--00---00-00-
-00-0-0------------10---0---00--
-0-0-0---------20-0-0000--0-----
-00--00------01-0----0-0-0---0-0
0-0-0110-0-----0-00-0---------0-
-----00-0-0---310-00-0-00--0-0-0
0-0------0000210-000--00-0----0-
--00----00-21-31-1210---00-----0
01-20--0-0----0----0----1-------
--00-0----10------100-------0---
0-0-0-0-0121--1112---00---1220--
-0--00000--010521000-0-0-0------
---0-1310000---0--01-10---0020--
-0-----0----0--0----0---0000-0--
0-00-------01--0--0-----1-2-400-
-002--0-00---1--00-0--2---0-00-0
--0200-01-0--0-0130----1--00----
---0----030----0---0--0-0-0-0--0
---------0----13-102002--20-0---
-----00-0-00-0-00-11-200000--00-
----0-00-00---0------300--00----
-----0---0-000------0-0100122-1-
--------0-00-0----0----20-0-----

Generation = 6, Population = 423.
1---------00-0-0---------0------
2---------10-----------00---0---
--2-----200-00---0-----1---00---
1-------11---0-------0-0-10---0-
0---2-001-12---0-----0---00--11-
--1---10---1---0---1-112-0001---
0-0---0-00---1-------1-20---2--0
----10-------2---0-110-2-3-111--
0-0-0------0-----1----11--0-----
-----------------10--0-2-1-2111-
010-0---0------0---2---201--0--0
-----0-------0--01-0---1-0-1----
1-10--0------0---2-----0-01--110
---0---0---0--00--02-1---0--1---
0---010------0-3---2-1-----00--0
-----1---0--012-1---0101----0-0-
-01-1--10----001-1-0-0--00-0-0-0
-------0--1-0---1-1-0-0-1-0-----
--1--00-0-111--10--1--1--100---0
--------110--24---3-100---0-----
12-31-0-01--001--00-0--12---0--0
-------000--1--10-211-0-1-2-1---
-0101-10--32---22-0---1---2-310-
-----1-11001--6-211-------1-----
--0-1-4-1---01------0-1-00-1--0-
-----1-1-000102-0-----00--------
----0-000001--11----1-0020-1--1-
-1-3---0-1-0-200----20--00-0--1-
-----1012-1001--2411--2--01111--
---1-0---4-0-0----11--10-0-0100-
---0-00-1110--24021--13-2-1-1-10
-----1-1---1----10--03-1-11--110
---0---10--202--0-00---1001--0--
-------0-1--------00-0--1--33--0
-----0-0-01-010--0-00----01-2-2-

Generation = 7, Population = 546.
20-------0------0------0--0-0---
301-----2-2----0-0----0-1---10--
-0-0---0-1-01-0-0-0--00--0-1-00-
200-1-0-2-01-100-0--01-1----0-10
1000---1-02-00010--00---011--2-0
-020202-00-200010-0--2--0-1---00
--101-1011000200-0----031001--0-
---0-1--00-0030-01-2--0-0-122200
----1-----0-01--0--0002211-1--0-
-0------0--0---00-1-0-1-02032-2-
1-1----0-0---00----30103-2011---
-0-0----0---010-1--10-2-0-0--00-
--2-0------001-1-3---001-12--2-1
---1-00-0-0-001-0-1--20101--2-0-
-0--121--0-0-1-4---30--0-00110--
000-02-0--001------01--2-0-010-0
012---1-1-0-0-12--0--10--10-0-0-
-0--00-100201-3120---01-2-10-0--
-0-00110102----2-00-0--0-2-10-0-
000000-022--1---2-41----0-1-0---
23-42--012-0-1---110--02-0-0100-
0-0---0-1---2----03---102-3---00
01--212101------32--002100----10
-0-00---2-1----2---00---0-2-00--
-0------20-0--2--001--20110-20-0
--0-0--2--1121-0-0---01-0-------
-0---01---12-02----222-13--24020
0----00--2--0-1--00--12--10---20
-0--0--23-2--2--3-2---3--1--2-1-
--02--0005--01-0-02-0-2101---1--
--01-11022-10-3-13--------202-2-
----020201---00-2-1-1-02--20--2-
--0-01021-0--30010----0-11---1--
---0-00-02-0--0-0--10-0-2014----
----0--1--2-1-100-0-1----1203---

*** Life<FredkinCell> 35x32 ***

Generation = 0, Population = 57.
--------------------------------
--------------------0-----------
----0--0----------------------0-
--0--0------0-------------------
--0-----------------------------
--------0-----------------------
-------0-0-------------0-----0--
-0---------------------------0--
----------------------------0---
------------0----0---0---------0
-----0-------------------------0
-------------0------------0-0---
------00------------------------
-------------------0----------0-
-------0-----------0-------0---0
------------------------0-------
-----------------------------0--
-----------0--0-----------------
--0---------------------0-------
--------------------------------
----00--------------------------
--------------------------------
--------------------------------
-0---------------0--------0-----
---0-----------0------0---------
--------------------------0-----
--0---0------------------------0
--------------------------------
-----------0--------------------
------------------00----00------
--------------------------------
--------------------------------
--------------------------------
--------------------------------
--------------0-----------------

Generation = 3, Population = 495.
--00--0-0---0-----0---0------0-0
-0-0-1-0-0-0-0---0-0-0-0----0-0-
0-00--2-----0-0---0-0-0----0-0--
10121--21--0-0-0---0-0-0----000-
1-100000--0-0-0-----0-0-0---0-10
-1-00-1--0-0-0-------0-0-0-0-2-0
--1-010-0-0-0----0--010-0---2-0-
----0--0-0---0--0-0-0100-0-1-10-
-0-00---0---0000-0---001001--1--
0-00-000---002-10-----01001-20--
-00-00-0--00000--0-0-0-00--021--
---00-000001200----1--00---01-02
---0-013-10000-0--020-----0----0
----000-0---0-0-01010100-0---0-0
----01-1--00-00-010101----0-0-0-
--0--00--00-00-0-0020--00--0----
-0-0--0-00-0000-0-010-00200---0-
0-0--0-00-002200-0-0--00200--0--
-0--0-0--0-0000-0----0-000-00-0-
0--0-000--0-00-0------0-0-0--0--
-00-11210--0--0--0-----0-00-----
0-0-0000-------00-0---0-00-0----
-00--10-------0100-0-0-00---0---
-0-2--0------002000---001----0-0
0-2-0110----0-00020--0-0-0----0-
-1-0-00-0--0-0-0010-0-001-------
--0-0--0-00-0-0-0000-0-0-0------
0-00--0-00-0-0-0-0110-001-10-0--
-0-0-0-00-0-0-0-0000000000-0--0-
--0---0--0-0-0-012112--211210--0
----------0-0---000000000000----
-----------0--0--0110--0110-----
-------------0-0--00----00------
------------0---0---------------
-----------0-----0--------------

Generation = 6, Population = 410.
---0-11-0--0-----------0--0-01--
1-------200---0-0---------1--1--
-1--1-----00-0-------0--01-11-21
2-1---23--11--0-010--0--0--0----
--1------1---0-----0---0-0-1-01-
11------00--01-01-1---10-10-1---
01----10---0-2-0-1---2-012-0-2--
1--0------00-1100--10--0012-0---
00-101-210-0-0--------02-121--12
--1------0-0131---0--01---1---2-
------10--00-----0------11--2--2
---1---0----200-1---0--0000-10--
0-231---11-100-1---2---10-1--01-
-0--------0-30300---1201010---23
012---2--013-----2----0---100---
-------1--0-1-11-0-3-1001-0-0--1
0---2---10-0---1---21--03--00---
-0---1--11--2---11---0--2---1---
-000--30-------1-10--1----0--10-
---1---1--00--0---1---1-1---1-0-
-101-12---11-0---1-0--------1--0
-----0---1--1---00---01---0-0-0-
01-0-1-1-0-----1--00-----------0
-------1------12--1-1-31-01-0-0-
0--1-211-00-----03--11-----100-0
-----1-------0--0------04--10-0-
--1201------0-----11--1--100-0-0
---1----------0---2-00-0-12--10-
01-------00---1-----1---0--0-1-0
-0----------01--2-125025-2-13-11
0--1---10--00-2-0-----1------1-0
--------------00--110000110-00--
--0---0--01-110-0-1------------0
----------------01--1001--10----
--------0-010-0-0-2-0-----------

*** Life<FredkinCell> 30x34 ***

Generation = 0, Population = 58.
----------------------------------
-----------0-----0--0-----0-------
----------------------------------
-0-----0--0--------------0-0------
---------------------------------0
--0-------0-------0-----------0-00
-----------0----------------------
-------------------0--0-----------
----------------------0---0-------
--0------0--0-----------------0---
-------------0-----------0--------
-------------0--------------------
---0-------0-------------00-------
--------0--------------00---------
---------0------------------------
----------0---------------------0-
----------------------------------
------0----------------------0----
--------------0-------------------
------------------------0---------
--0-------------------------------
------------------------------0---
----------------0--0-----0--------
----------------------------------
-------00-------0--0--------------
-------------0------0-------------
-----------0----------------------
--------0--------------------0----
-----0----------------------------
-----------------------------0----

Generation = 1, Population = 187.
-----------0-----0--0-----0-------
----------0-0---0-00-0---0-0------
-0-----0--00-----0--0----000------
0-0---0-00-0------------0---0----0
-00----0----------0------0-0--0--1
-0-0-----0-------0-0---------0--1-
--0---------0-----00--0-------0-00
-----------0------0-0010--0-------
--0------0--0------0-010-0-0--0---
-0-0----0-00----------0--00--0-0--
--0------0---10---------0-0---0---
---0-------0010-----------0-------
--0-0---0-0-00---------0-110------
---0---0---0----------011-0-------
-----------------------00-------0-
-----------0-------------------0-0
------0---0------------------0--0-
-----0-0------0-------------0-0---
------0------0-0--------0----0----
--0-----------0--------0-0--------
-0-0--------------------0-----0---
--0-------------0--0-----0---0-0--
---------------0-00-0---0-0---0---
-------00----------------0--------
------0110---0-0-00---------------
-------00--00-0-0----0------------
--------0-0-00------0--------0----
-----0-0-0-0----------------0-0---
----0-0-0-------------------------
-----0----------------------0-0---

Generation = 2, Population = 202.
----------------------------------
-0-----0-01--0-0--11--0-01-10-----
---------------------------------0
--10-0--11010----00-0--0-000-00-01
-----------0-------------------0-2
01--0--00-0-0---0--10-0--0-00-0020
---------0---0--------1---0------1
---------00-0----01-11--0-------00
-----------0-0------0----1--0-----
0---0--0--11-00----0--1-----0---0-
---0-----------0------00-0-0------
--0-----00-11--0-------00-----0---
-0---0-----------------102-10-----
------0------0-------01--01-----0-
---0---0-----------------00-------
------0-----0----------00----00---
---------0----0-------------------
----0---0-0-------------0--0---00-
--0---------0---0-----------------
------0---------------0---0--00---
0---0---------0-0--0-----0--------
------------------------0---0---0-
--0----00-----0-0110-0-0---0------
-------------0------0---------0---
-----01--100--0-0110-0---0--------
--------1--1---0--0---0------0----
-----0-010---1--0--0--------------
------0---0--0------0------0-0-0--
---0---0---0----------------------
--------0------------------0---0--

Generation = 3, Population = 444.
-0-----0-00--0-0--00--0-00-00-----
0-0---0--1200---002200--12-210---0
-000-0-00--000-0-0-00-000-0-000--1
-021--002--210--011--00--1-1-11012
000000-0-0010---0000--00--0-0001--
1200-00110-0---0-0021-100-011-11-1
00--0--0-10-0-0-0000--200---0-000-
--------0-10-0--012--2-0--0-0--01-
0---0--0-00101---00-1-1---0010---0
-0---00-002---1---0--02-----10-0-0
0------0000-01-10--0-0--0-----0-0-
-----0-011-221010------1-0--00-0--
0---0---00-000-0-----0--1-12100-0-
-0-0--------0-0-----012--1--0--0-0
--0-0-0-0---00-------000---0-00-0-
---0-0---0-0-00-------011-0-0110--
----0-0-----00-0-------0---0-0000-
--00-0-0-0-00-0-0------0-00-0-0110
-0-00-0-0-00-0-0-0----0-0-00-0000-
0-0-00-0----0-0----0-0-0---00110--
-0-0-00------0---00-0-0-----000-0-
0-0-0--00--------00--0-------0-0-0
-0-0--0110------1--10-----0---0-0-
--0--00000000-0----0-0-0-0-0-0-0--
----0121-2--0--01-210---0-0--00---
------0-20-200--0-10---0-0--0-0---
----0-0121-0020--0----0----0---0--
---0---00---010-0----0----0-----0-
--0-0-------00------0--------0----
---0-----0-0--------------0-0-0-0-

Generation = 4, Population = 198.
---------------------------------0
--1----0--31-0-0113-110-2-0-----01
-----------1----------------------
-1-2-01----3--0----0-110-----2-1--
----------------------1---1--1-2--
2-1------1-10----1--2-2-----20222-
-------1-----0-0---------0--------
-0-----0--2--1-0--3----1-010------
---0-------2------1---2--1----0--1
0-0--11---3--0--0-1----00-0---0-01
-----------0-----0---1-------0----
---------20------0-0--0---------0-
---------------1-----1----2--11---
--0-0-0--0---------01------0100---
-----0--------0----------0--------
------0------11---------2---1---0-
--00-------0-------------00-------
--1-----0-0------------101----1--1
---------01-----0-00-----0--------
----------0---------0-------1---0-
0-----100-------0--0--------------
------0------0------0-----0--1----
-----------00-00----10-0-----0----
--------1---------------0----1----
--0012-----0---1----1--0----------
---------1------10------0----01---
-------2-------00--0-----0--------
----0-------1------------0---0---0
-0---0-000------0--0--------------
--------0----0------0----0---0---0

Generation = 5, Population = 461.
--0----0--00-0-0000-000-0-0------1
-0-0--0-014----1--4-2-1----2---01-
-000-000----000000000--00-0--0-001
0----120--0410-0--1--2210-0-03-21-
0000-00--0--0-0--0-00----0-0--0---
---0---11--21--00-02--30-00131-331
000---020100-1-1000-0-2001-000000-
0-00--0100--02-10140-----1-10-0--0
00--0000--0-0--000-0-0-0-200-010-2
----0220-0-10-10-020-0-110-0--1-1-
0-0--00--00-01---1-00--00-0-0----0
--------131----101--00-1--0---00-0
--0-0-0---0---0-00-------2-----00-
-0---0-00-0---00--012----1-1-1-0--
--0---0--0----10---00-----00-00-0-
--00---0---002-0-------1-000-1-0-0
-0-10-0-0---000--------00-100-0-00
-02----0-01-----0-00--02-2---0-11-
--0------120---0--11---0-10-0-0-00
0-----000-10------00-0---0-0-1-0-0
-0---0--100--0-0-00-0-----0-00--0-
0----01-0--0---00---1--0-0-0020---
------0-1-0110111--1-1----0-0-0---
--0000-0-0--0-0------0-0-0--020---
-01--32-120-0-0--1-1-00-0-----0---
--0000-02-02---0-1100-------0120--
----0-0-21--0-01--0-0----10---0--0
-0-0----00-0-1-0--------010-0-0-0-
0-0----1110-00-0-00---------------
-0---0--1---0-0-0----0--0-0-0-0-0-

Generation = 6, Population = 446.
-----------1-------------------0--
01-10-1-1---0---11-2-12---0-100--1
---------0---1--------0---1--1-1-2
11--02--2-1----1-12003-2-1111-1---
-------0---1-0-0----1----1-101-2-2
--11000--1----------20--01--4---42
---0-0---2---2-2-11----1-201-111-1
---1--1-1-2----2--5--21---12---0-1
-1---1-1-0-2---111---1-103-111-103
-000-----1-2102-01-101-22--1--20-1
---0-----1-0-2----0--101-010-0-0-1
0---00-0242221-2120--1-2--10001-01
-----0-----0-01----0-1-113-2-1-11-
0-0----11010-01---12-1--1212-2010-
--1----0---00--10----0-0-0-1-11---
------0--0011--10--00-0221-112---1
01--1-----0--11-0-00---11--11-----
0---0---0---000-----001303000--221
0-10--0-----0-0--02200-1-210------
--0---1---2-00----1-0-0001---21--1
0-0-011-2--00--101-01--0-0---1----
----0-----01---1--0-2-0----1-3-00-
0-00001120122-22-11-120--0-0---0--
---------10--0--00--0-0-0--0--10--
0120143--3-01-1-12221-10-----0----
----1--13--30-01--21--0-00001--100
-00010-23--0-2120-1010-----0------
--0---0-110--20-00--0--012----1---
-----002-210--010110-0---0--------
----0-0-2-0010-0--0-0-00---------0

*** Life<FredkinCell> 33x32 ***

Generation = 0, Population = 60.
--------------------------------
-----------0------------------0-
-----0--------------------------
---------------------0-0--------
-------0-----0----------0-0-----
------0------------------0------
--------------------------0-----
--------------0-----0-------0---
-0----------------------0-------
-------0------------------0-----
------0-0--0-0---0--------------
----0---------------0-----------
--------0------0----------------
-------------------------------0
--0------0--------------------0-
-----------------0-----0--------
--------------------------------
-------------0--------0------0--
----------00--------------------
-------------------------00-0---
--------------------------------
-------0------------------------
----------0-----0-----------00--
----------0---------------0--0--
--------------------------------
--0-----------------------------
--------------------------------
---------------0------0-------0-
-----------0--------------------
------------------------------0-
-00------0-------------0--------
--------------------------------
--------------------------------

Generation = 1, Population = 199.
-----------0------------------0-
-----0----0-0----------------0-0
----0-0----0---------0-0------0-
-----0-0-----0------0-----0-----
--------0---0-0------0---0-0----
-----0-------0------------0-----
------0-------0-----0------00---
-0-----------0-0---0-0--0-00-0--
0-0----0------0-----0--0-00-0---
-0---------0-0---0------00-0----
----00-0-00---0-0-0-0-----0-----
---0-00----0-0-0-0-0-0----------
----0--0-0----0-0---0----------0
--0-----00-----0----------------
-0-0----0-0------0-----0-----0--
--0------0------0-0---0-0-----0-
-------------0---0----00-----0--
----------000-0------0-0----0-0-
---------01100--------0--00-00--
----------00------------011--0--
-------0-----------------00-0---
------0-0-0-----0-----------00--
-------0-010---0-0--------001-0-
---------010----0--------0-0-10-
--0-------0---------------0--0--
-0-0----------------------------
--0------------0------0-------0-
-----------0--0-0----0-0-----0-0
----------0-0--0------0---------
-00------0-0-----------0-----0-0
0110----0-0-----------0-0-----0-
-00------0-------------0--------
--------------------------------

Generation = 2, Population = 194.
-----0--------------------------
---------0---0-------0-0----0---
---0---------0----------0-0-----
------0----0-------0-0-0------0-
---------0-0---0------0-0---0---
----0---0-----0-----00-----00---
-0-----0-----0----------0-0-1---
------00----0---0-0---0--0----0-
---0--0-0--0-0---0----0---------
----00---0----0---------1-------
-0--1-0--110-0-0---0----0-------
--0---10----------0---0---0----0
--0-----0100------------------0-
----0------------0--0--0-----0-0
0---0--01--0---0------------0---
-------------0-0---0-01--0---0-0
--0------000------------------0-
-----------1---0-0--0--100001--0
--------01--11------------------
-------0-----0--------001-20010-
-----------0----0-----------10--
-----0---01--------------0--11--
--------0---0-0---0-------11--10
--0----00---0-----------0--10--0
----------1-----0-----------01--
0---0-----0----0------0---0--00-
-----------0--------------------
--0----------0---0--0---0---0-0-
-00----------0---------0--------
---------------0------0-----0-0-
1--10--0-------------0---0------
------------------------------0-
-00------0-------------0--------

Generation = 3, Population = 434.
----0-0--0---0-------0-0----0---
---0-0--0-0-010-----0-----00-0--
--0-0-0--0-0010----0---0---00-0-
---0-0-0-00100-0--0---0-0-0-00-0
----0-0----10---0--000-0-0--100-
-0-0-0-----0-------011-----110--
0-0-0--1--------0-0-0000-0-0200-
-0-0-0-------0-0-0-0-010----00-0
--0---10--0-0--------01000----0-
-0---10--1---0---0-0--0020------
0--0201-0--1--0-0---0-00100----0
--1000-1-----0-0-0---0-000-0----
-0100-0-1--10----00-0-00--0----0
0-0010-0-00----00-00-00-0-----0-
-0-01001200-000100-00000-0-0-0--
0-0-0--0000-0--10-0--1200-0---0-
-0-0----01--00---0-000000-000--0
--0-----0--2-00---00-002----20--
--------121-2-00-0--0-0--0---000
------0--0-0-10-0----01-2-3-1210
-----0-0-0--00-0-0----00000-21--
----0-0--12-0-0-0-0-----0------0
--0--0--1-101--0-0-0----0-2-1-2-
-0-0--01-010100-0-0----0-0-----1
0-0-0--000200----0----0-0-0----0
-0-0-0---01---0------0-0-0-0--10
0-0-0-------00-0-0--0-0-0-0-00--
--10-------0010-0-00-0---0-0---0
01-0--------0100-0--0-----------
00000--0-----00-0--------0-0---0
-112100-0------0----0---0-0-0---
00000--0-0-----------0-0-0---0-0
0110----0-0-----------0-0-----0-

Generation = 4, Population = 204.
-----0-0-----1----------0-0-----
------00---0---0---------01-----
-0-------1----------------0-----
--------------0--0-00----0-01---
-0-0-----0-2-----0--1-0-0---2-1-
--0----0--01---------2----0--10-
-----00-0--0-0---0----1-------1-
----0-----0-----0-0-01-1--------
-0---0-10----0-0----0---1-0-0---
---0--1----0----------1--1----00
----3--0--1-00-0-0---0----1---0-
0-------0-----0-01--0--11---0---
-1--1------21------0----0-------
-------1-----0--------1---00----
0----1--3-1------1--------0---0-
----1--------0-----002---0100---
--------1------0----------------
-------0-0-------01------00-----
--0---00-32---110-----------011-
----------0------0---1203-4---2-
--------------------------------
--00-------0-0--------0------1--
------0---212-0-----0---10-----0
------1-------10----------0-0--2
-----------1--------------------
0-----00----------------------2-
-01------00-----0------0----11--
----------01------11------0--00-
-------0-------1----------------
--1-----------------------0---0-
12----1------0-----0-------0----
---------------0------0-------0-
-22------0-0-----------0--------

Generation = 5, Population = 459.
----0-010--00-00-------0-010----
-0----1-000-010-0--------120----
0-0---000-00--00-0-00----01-0---
---0-------1-0-001-1-00---01-00-
0-0-0--00-030-0-010-20----0-3020
-----0----1200--------0-00-1-210
--0--111-001--0-----00----0---20
-0-0-000-0-------0---21---0-0-0-
0-00--1210000-----001-1--0---000
-00----00--------0--0--0--0-00-1
0----0---1-1110-010----01--0001-
---------000---01-0---02-000-00-
--10-0-01-032-0-000---0-10000---
00--100---00--0--0-0-0-000-10-0-
-0----0----0----0-00000----000-0
0--0------0-0-01-001-32-012-100-
----0--------00-000000-----00---
--0----101----0--120----0110200-
-0-0-01----1-12-100--00000-01--0
--0---00--10--00--0-02--4--01-30
--00------00-0---0---0-00-0--10-
-0110-0----10-------00-000--1-00
--00-010-032301----0-00021--1021
-----021--1-10-10---0---0----103
0------0--2-0-00----------0-0-00
--0--0110010----0------0----0--0
-120--0001-----0-000--0-0-002-0-
-01----0---20--000220--0-0-0--10
--0---0-0-00--0-0-00---------0--
0--0--00-----0-0---0-----0---0-0
23---0-0----0-00--0-0-0-----0---
0-0---0--0-0-00-0--0-0-----0-0-0
0330----0---0--0--------0-----0-

Generation = 6, Population = 444.
-0-0-------1-1-1------0---2-0---
----00--1-----1----00--002------
-0---0---1---1---1--1-0-0-2---0-
--0---0---0-0---1202--10--12----
---0--011------0-2103-0-0-1-4---
0----1--0-2-110-000--2--11--1--1
----022---1----0-0-01-1-0-1-2-3-
---1---10-0-0-0-0--00--1--1--0-0
----0---21--10---01--02-1-0-0-1-
01---1---10--00--10-10-1---0-1-2
--0-3-10-21---10-2-00--12-1-1---
0-10---1--1100012--0-0----11---0
0-211101211-3-10-1----1---1-----
1---21--00-1-01001-101-11-0210--
01001-11--11--------------------
--0---0--0-0-0-2---2-4--1-3-211-
0-0--0-0110--1101---------0-10--
----00-2-202-0-002----0--2----1-
0----1-013-2-231211-------012-11
--10---100-101-1-01-13-0-----2--
--1----0-0-10--00---0---10--2210
01--101--122-00--0--1101---02-1-
----0----143-12-0-0----1--21-1-2
0-000-320--02---10----0-1-0-0--4
-00---0----1101-0---0--000--11-1
0-1-012-1121--00--00---------021
0--10---1---0-01--1--0---011--10
0-2---0100--11--11--10--0-01---1
0-1--01---1-----10-1---0---001--
1---0-----00---1--01--0-0-0--1--
34-21--100-------0---0-0-0---0--
--1----------1---0--0---0-0-0-0-
--410-00-----------0-0-0-0-0----
