*** Life<FredkinCell> 10x15 ***

Generation = 0, Population = 66.
-0-0---00-00000
-0--00---0-0--0
000-00-00--00--
-----00-00---00
0--------0-0-0-
-0000--0----0-0
00-------0-00--
--0-0----0-----
-00-00-00-00---
-00-00-0-0000--

Generation = 1, Population = 75.
01---0011011---
------0-0-0-0-1
111--101-00-1--
-00---10--0---1
--000000-1--010
0---100-0--010-
1-00---001-1-00
001-1--0-1--0--
0-1-1---1------
0------1011110-

Generation = 2, Population = 86.
120-011-2-22--0
--0--0--1--01--
22-002--011-20-
--1-00210010--2
0---11--0----2-
10-0-1--100-210
-0-100--1--2--1
1-202001-20---0
-02-20-02000-0-
100-0-021----10

Generation = 3, Population = 75.
2---122-3-3--0-
-01-0--0--0---1
33-113--12---1-
---01----121-0-
1-0--2---1-0-30
---1--002-1032-
110211--210----
---1-------0--1
0-303--13111-10
21--1013--111-1

Generation = 4, Population = 68.
--00--31--420--
0-20-0--1-10-0-
4-1--40-2-1022-
-0---0---2-----
---0---0-2--041
-002-11----1---
2----2-----2001
-02-20-1--010-2
1041------22021
-2---------2212

Generation = 5, Population = 69.
22--1-42-0-31--
1-3--10-2-21-11
532-151-32-1--0
---011-1-3-1--2
---11----30-1-2
-1----2--0123--
-1-2---0---31--
1--13---02--1--
2-52-0-1-1---32
-3-0--------32-

Generation = 6, Population = 78.
-3-0-2-33-4-2-0
--400-103-3212-
---1---1--1-2--
00----2-0-22-0-
-00---0004--2-3
120-11--2-23420
-2-3--------20-
2--24--11-0-2-2
30633---322-0-3
--0110-3-1-24--

Generation = 7, Population = 83.
2-011-4---5330-
--5-112---4--3-
53-2--1232--32-
1--0-13-13-3---
11-11----5003-4
2--222--303--3-
230412-0----3-1
30-3-002-21--03
--7-4--1-3-2--4
2--221--1213-22

Generation = 8, Population = 76.
-----253-0----0
--6---3-3-5-1-1
-423-52-4---4-0
-01-12-1-424002
22-2-20-061144-
-2-3--2-41--4-0
34--2301---3--2
---4---3--2--14
----50-23--303-
-3-3321-23---3-

Generation = 9, Population = 72.
--0-13643---301
--7--1-040--2--
5--41--25----2-
-1--23----35-1-
33031--0--22--4
2--4-2-0---3531
4-043-1--1-----
302-4----2-1---
-0-3--0----4-4-
2--44323-413-42

Generation = 10, Population = 80.
-31-24-5---3--2
108-1231-152331
---5-52---11-30
12-0343-14---2-
-4-4-20106-3-45
--0---2141-----
-4-5-3--220-302
-1--50--13-221-
31745-1------5-
--0---34-5----3

Generation = 11, Population = 71.
------6630-4--3
21-0--4--26--42
---6-63-52--44-
2--1--41----0-2
-5051--2-7----6
-2-4-2-2-2-35--
450-34--3-13-13
---4---3--2332-
428--02-3--4-6-
2-1-43-5--1----

Generation = 12, Population = 66.
23-1-4----5-3-4
32-11---437----
-42--7426--1--0
-----------5123
----2----823-47
---5-3-3433-6--
561-4-11-2-4--4
--2-----13---3-
------3--325074
332-5-3--5---4-

Generation = 13, Population = 60.
---22-6-3-6----
-38-224-----3--
--3--8-----2--1
-21-344114-6-34
-------2--3----
22----2--------
6--5-42---1----
3-345---24---44
42--5042-4----5
4-3---4526-3-5-

Generation = 14, Population = 74.
-3-3-47----43--
34-1-3-14-7--42
-4-61-426213--2
23--45-2-537-4-
3-0-2203-----47
-305--3--------
---645-13--4-14
-145-0--3---35-
538---5---25-76
53-45--6-------

Generation = 15, Population = 81.
-4-4--8-3--54-4
45--24---382-5-
5-----5-73--443
----5---1-4--54
4-15-31-08334-8
-41-23434--3---
--17--22-21-3-5
--5-51--4423464
---45---34360-7
--3563--2-13-53

Generation = 16, Population = 65.
-5----------50-
--8-354-4----62
6---------1-5--
--1----2--5-1-5
-5-6---31-44549
-52-34-4-3346--
--2845------416
-16--2-----4--5
--8-60-245-----
-346744636--46-

Generation = 17, Population = 88.
2---248-3--56--
4---4-5--38-3-3
-4--1852732-6--
2-----43-5-7-56
46---3142855---
2------5444573-
-63-5622-214---
327-5-03442---6
-3-4-15-5-36077
545-85-74-13573

Generation = 18, Population = 79.
35-4-------6-04
5--1----4--2---
6-36---3---37--
33--5554---8167
571-242-3-66--9
352-3-465----41
6-----33-3---16
4--56-1455344-7
5--------547188
65669-48---468-

*** Life<FredkinCell> 24x12 ***

Generation = 0, Population = 110.
--0-------0-
-0-----00--0
----0-----00
000-00-----0
-0-----0-0--
---00--00-0-
-000000--00-
0----000-00-
-00--000000-
-----0--0--0
---------00-
00--00-0---0
0----00-0--0
--000----0--
--0--00-00-0
-00--0------
-0----0-00--
----00--000-
0---00000-0-
-----0-----0
00----00----
-000--0--0--
--000----00-
00---0----0-

Generation = 1, Population = 149.
---0---000--
0---0-011001
0-001--00011
111--100-0-1
-1-0-0010--0
--------1-10
-1-111-0--10
-0-0-1--0110
-110011111--
-00-01--100-
00--0--0-110
-1001-0--0-1
1-000-10--01
00--10--010-
------1-1---
0--0010----0
01--00------
00-0--0-11-0
-0-0-----01-
-0---10-0---
1--0---100-0
--1--01-01--
00-11-0-0--0
11-0--0---10

Generation = 2, Population = 137.
0-0-----1--0
10001-1---1-
-0----011-22
-2-0--11-10-
-20---12----
----0-002--1
02------0-21
0-0----0-22-
02211----200
-1-01--0----
110-----022-
0-112-1001--
2--110-1-0--
-1---10-----
-0-0-02-2-00
1-0112-00-0-
1-00--0-00--
-1-1----2-0-
---100--0-2-
-10-02101000
----0-02----
---0-1-01-0-
--0-20--1--1
---1-010002-

Generation = 3, Population = 153.
101-0-00-0--
-11-2-2--021
----10122033
1-1-012202--
0-1-0023-000
0-00---1-0-2
-3--1-0010--
--1-0-0-0-30
-332-1--1-11
0----10----0
-2-0--00-330
-1-2-02112--
3---2--2010-
-20--2--0100
-10101-03--1
20-----1101-
21-1---0110-
--0--000-110
----1----0--
021013212-11
-00-1--300-0
-----21-----
-0--31-0--0-
----0---1-3-

Generation = 4, Population = 154.
21--1--1-1-0
-----0-1-13-
00-021-33-4-
2-2-1---130-
---0-13401--
10-1000-2-13
--0-2--12---
-0201110-2--
-44312112--2
-10-1---100-
-3-1001-0---
-2-3213-2301
-00--0------
----1300121-
-21-----4002
-1--1202-1--
--0-00-12-1-
0----1--2221
00--20---12-
132----2--2-
---0200-1101
--1-0-201100
0-01--0--011
-1-11-----40

Generation = 5, Population = 141.
3210--02-20-
---021--1---
-1013------3
32--212224-1
-2-1--4---00
210-11---024
031--10---21
0--1-221--30
05-4-322-2--
02---1--2-1-
1-0--1---3-0
0-1-3------2
3-1-2-12---1
---024--23--
0-21---0--13
2201-3---210
2----10---2-
1-0-0-0--3-2
1--13-00--3-
-43------0--
10013----2--
002-123-2--1
-0--311----2
--0-201-----

*** Life<FredkinCell> 29x15 ***

Generation = 0, Population = 86.
--0-0----00-0--
000--0-0-------
-0---000-0000--
0-0---0-------0
------0---0----
0--------------
---------000---
------0--------
-0---0---0-0---
0------0--0-0--
-----0--0------
-0-------------
0-0---------0--
0------0----0--
-----------0---
---0---00------
-------0-00----
-00------00----
--------0------
--0------0-----
----------0----
--000------0---
---0-0-----0---
-00--------0-0-
0-----0--0-----
-000--00-------
--0------------
---------0-----
---0---0--0---0

Generation = 5, Population = 199.
-3100--1-3---11
5------50-020--
-11-1--2-311-42
-------0100---1
-3003431---12--
0-00-1--0-2----
--0--3-12---2--
------1-10---01
202-011-12-0-1-
0------21-123--
14-01----1-020-
--0---22-0-00-0
--3--12-303--03
--13-1-1411-3-3
1-0-0---------0
-14210-3--0---0
--11-123--2--2-
-23--0--0----2-
0-022---0--02-0
----0--310----0
1-0--1--0-1--0-
10--3-0-11-3--0
-----010-1---2-
33------02--03-
---414--1-100-1
-23---2320---0-
201--12-0---00-
01--02--01-----
-0-1000----11--

Generation = 10, Population = 199.
1-1-2314-33--44
-1---57-330---0
-----22-1-----2
1--22-11-3--20-
143-374-1---5-0
-4502-----2----
----45-35-4-2-1
--0-2-41--3-2-4
--5--2-22-2-13-
------45-3-3--1
1-----4426-343-
2-2--0--2121--5
2------15-4-225
---6--0--32-4--
1-00-11--4-----
-2-74----23-013
1--2---4-----5-
--6--3--221---0
----34-----1-2-
---3-1--131-21-
---2-1-3-021-02
----3120-2-301-
--2---3--1-2--3
------242---130
202-16--3-21-3-
3--4-13---1-222
-1--32---453-01
1---142--6---10
--342553-2----0

Generation = 15, Population = 225.
--4--637534-0--
-1-228-+-5-4-3-
-6-4--5-4-----4
-325---31--23--
353-8--3--24800
05-0--2042-14-1
0--3784--3-1446
0212--------2--
-08--4---3-6450
3---3---2-2-3-2
45----7--7-5450
-1--2155---11--
71-22--45-4----
51---31-93-1--4
12-1--1--47-23-
--7+--6--483-48
2-4-345512311-0
--64--3----7-42
-2---9--32-345-
-3-654--25214--
---5---5-2---14
-43-----434--42
-5-51---143-4--
643221-5---3--0
2046475------3-
--343-4-45--4--
-232-5543-+62--
153-4-232----2-
3----8--2454--5

*** Life<FredkinCell> 32x2 ***

Generation = 0, Population = 39.
0-
00
00
0-
--
00
00
00
00
--
--
--
-0
-0
-0
--
--
-0
00
00
00
0-
--
00
0-
00
--
00
00
00
0-
00

Generation = 5, Population = 29.
-1
--
21
-1
01
-0
-1
--
2-
-2
--
12
1-
--
1-
21
--
-1
21
11
1-
2-
--
3-
--
-2
--
--
1-
5-
--
33

Generation = 10, Population = 27.
52
--
54
-2
-3
0-
22
--
-3
--
31
13
--
-0
-2
3-
--
4-
26
3-
-1
--
--
-3
--
1-
--
--
--
6-
-1
6-

Generation = 15, Population = 29.
--
20
--
3-
--
-2
55
6-
-4
4-
--
1-
--
23
2-
45
3-
--
77
-2
22
4-
--
-4
-1
--
-2
5-
-2
-3
1-
--

*** Life<FredkinCell> 27x30 ***

Generation = 0, Population = 141.
---0---------0-0----0---------
---0-00-------------0---0---0-
-----0------0---------00------
---0--------------0-----------
------------------------------
--00---00---------0-00-0-----0
----0------0---0--------------
-0------------0---------------
-------00-00--0----0-----0----
0-0--0-0-----0------------0-0-
-0---------------0----0-0-----
-------0------0------0--------
---0-------0---0----0-----0--0
-0-----------------0----------
---00---0-------000----0-00---
-000------------------------00
---00------0------00----------
-00----------0-------0-0-----0
----00-0------------0------0--
0--0------0---0-----00--------
-0-------0-0000--0-----0----0-
0---0-----------0----0-----0-0
0----0--0----0--0---0----0----
0-0--0------0------0-----0----
--0-----00----000-------------
------0---------0-0--0--0-----
-0------0-----00---0--0---0---

Generation = 2, Population = 322.
-0-2-------01----00-2--0------
-0--00-10---------------------
-------0--0--100-----1--00----
-01---000-------0-0-00-10---00
----00-----00--0------01------
0--20-1--10---0-0--02200-0-0-0
--1---011010--0--0-0-----0----
1----0--1---01--0-0-00-0--0-00
-1--011-2-22-0-10----0001--0--
-10110---0-1---0-----0--1-0-0-
-------00-0---1-------0-01---0
010----0-0--01--0------0--1-0-
---010--00------10-----0-10110
-01----0------0--1----------01
-00-21----0---0-2----0-0022111
120210-------0-----1-0-1--11--
-010--0000---1----2--1-1-000--
-2200-----01--10---10--0-0-11-
-11-2200----011--0-1--01-0--11
----01--0----0----01--1----1--
1--11---101-0-0----0-0----00--
2-01-00---0-1-----0-00-1---0--
01-0--110-0-001-21----0----10-
2-21--10--0---1--01--0-01----0
-1--0111--101--0-1110-0--10---
0-1-01--0---0-0-2-0-1-01-11---
-010--1--10-01-----0100---0-0-

Generation = 4, Population = 333.
-----1-1-0-23---12-0--101-----
-2---21-211-----0-1-21-11---00
-0-01---11-1-3--0-100-----10--
-2-----2--------------1-------
---0---11-02-100---10----1----
--1-0------1112-00-02-2---0---
01---0-13--20--1-0-2---01-----
-0-0-2-0--0---1------0--------
----0-30--4-1-11--1-02-2--1---
1---3-021--3-----00012101---00
-0-1-1--2--0-0-010--00-1-3--1-
--2-------01--0--00------1--21
---21--12-10--111-10--1-0--1--
1------0-------1-----1----0-23
02---1--0----02--0-1--0-0----1
-2-4-00---1---------0---01-31-
02-2----02--13-1-1--0-0---2-00
----000--0------1----0-----1-0
-1--44--00-0-3--101-1---0-1--3
11102100--1-1-2-0023----0---01
-1011--1--11--0--0---2--0--21-
21--1-0-0---10--200-2---1--0--
--0-11-32-----1041-0-10-1-11-0
-0410-3-010---300---0--2-----0
1---033-121-1--0-11-0-21--0-0-
0-3-0-1---0-0-0--12---2-01-110
023-0----320031----23-00-02---

Generation = 6, Population = 393.
-2--1--11-145--1---0---2-1-0--
-4--1-32--311-0-0--02311-1-0-2
-00----01---0--------2-2----01
-4301-2-2-10001--0101112--1-11
01-00111302221---1--010-1-0---
1-14002--1-3332-20-22-------0-
2-1102-15--20021--0--102------
120---1--1--123---11-2--1-1-11
1-002232-16-1-1-103---14------
11015--41-05-1-10----2-03--10-
-0-1-1-0410-0-2-12-00--315----
1-----0--2-3-2---00---1-0----3
1004----4-10---33-121--1--1-2-
30-1--1--0-1-12---101--0--0-4-
-22-3-0--1---24---1--10-----3-
32----2--0--1--10-0----2-33-12
-2141011-2-1-5--11---------100
1--1--211--31---31--2--0-----0
0---6--12--02--13--2-00-----1-
3----3001-3-12-0---5--2-0--2--
3--33-1311-3--2-1-1202-1-1-2-0
---212-0-1-03--0202----2110-01
-3--3-2-4-10-0--4-------31--1-
3--1-1-22--1-----2--20-----10-
-1-023-1143---2---112-210-0121
-1500---11------3--01-2-21---2
-23121-0-540----0--45-02---0--

Generation = 8, Population = 336.
---333--3-165-01---2-1-4-3--1-
-4---2--3--33-0-0-3--5-31-0-24
----2--------301-1--1-1-1----3
-------3--12--3---1--1----3---
---2-3-----22--1----2-03--2--1
11--002----533--4--423-11-1---
--332--37---00-301240----11---
-221-43--3------------1-----33
1-224-5------1--10--0-3-------
--215---1-2----3--2----2--1-22
----11-0----0-2-1---2-03-7-12-
3-----0---0--211--0-011------3
-2-----2-0---01--134-1-3--3---
3-1301-202-3----1-3-1--2------
--4132---11-02---11-0---1--3-2
54162----0201-0----211-205----
-------1-4-32--13--------123--
3-2-1121-02----15-1--0-01-0-2-
-31-----4----32--1------211-1-
--22---03--0144---3--24-----02
----3-1-3--5--20-1--04--03----
-22---------51--2-2----2-1---1
1321522--1--10216-1--3-031211-
3--3-35-4-1311---2-02----2--21
-3-2-341--50-1---1334-2102----
-37-2---1-1---2--------22-2224
12--4-1-----23--211-5-0---4-1-

Generation = 10, Population = 411.
-41----2-138500-13--23262-0230
------5--233310----02-23130124
--0-2-0-2-11050-212--21-32-10-
0---214-------5---1----31----1
-21--5--413-2---01-142--1-211-
331502--2----331-004-53132---1
-2---31--1--0--5-1-6011-2-1111
--23--3---2-33-11-33-4----215-
-342--7----2-1-2-23-0--41-200-
---37---10--1-03202-----4013-4
11--13----0-0-4---02----1--3-1
--2-10-2-30--2--10210-121-312-
--0--2----2-101-4-3-1-2------1
--1---2--41-0-331-3231-40----4
0-61321-0-10-4-0-3--02-1--4---
-4--20-1-2---202111433--25-42-
-3-61--314-32-0--2--2--11-4---
34-231212-442-1-52---0-------2
0--0---36011--2--1-31111--1-1-
-----4-2-140--6----6-2-1-0-40-
4-13-01---2----------4-2--2---
--221401---1--1241-1--14-----1
---35-25----3-2--2--0--03--112
5253-5734315----04-0-11332-123
-52443-3-6-033211-35404---1---
--9-412----011--51-2203-23-2-6
-----2111---4---------0311----

Generation = 12, Population = 400.
16-5-30--15--2--3-2--3---40450
0----473-23--1-100--2---1---24
1-0--2-022----2---20---252-1--
-54--3-4-123---1-13---2--0--21
121--51--15-221-210142-41-4-3-
5335---2---5--316--6-751-4-01-
---4231--1--2-2-2--80----3-33-
--2------321---3--3-1-2-11-174
-5-4439-4-62--322--1--5-1-4--0
-2237-1--2-6-2----40-2---03-3-
33-2-3-16--02--11---30-317--33
4----2---52-2-2-1---02-2-25344
230-2-04--2-121--3351345--4---
421----3---4-135---2311----0-6
--6-5---0---16--2----4---24-43
66-84-330--12224-114-3-427-6-3
-3-6311--4-32---4-2--31-124---
3------1--44-----4--3---2--1-2
----65---2--34223-1--111311-3-
3133-6----4026-201---261--06-4
421342144147----------12-32322
-------1----5--2-1312-3--1-1--
2-4----75--2-0------0322---1--
-475--93--15-----42--135-4-1--
2526-55-2-7-5-21-1-560-2-3-3-1
-4---1-------1--5--24-53--3236
-25--2-1---1-4-14-25--0----1--

Generation = 14, Population = 425.
1--533025-5-74-2--2-23-7-6---0
04-23--3--344323--41--3--5-22-
----421--423--2----2--1-722---
15623-5-334-02711---312--240--
1--21-325-5-4---232------1----
--5503-2----4-5-8106------2--3
34---33--32--0-54-2-0----3155-
------3-1--13355-1----4-1141--
2-5--39-4-64---44-530-753-6-1-
-4-3--3532-6320--2602-14---45-
-3-4-51-8--020-31-223--319----
--4-1-020725--433-3224--22-3-4
450-2-24-14--434-53-1-6-126-4-
-43---35052-13---3---114-1205-
---274-1-31--851242-1--3-26-65
8-386---0-4124-6-3-633--4-4---
-5--5-1---15-5114--1---33-6511
3---4-21--6-31227-----0-2--1--
1--1--158----6-432-4--3351---4
335-26-452-----2-3-7126301-606
443-44-6416--1213-2--5-213-3--
3-----01-31-5-2----1-1363-21--
--6--339-22-404--22----24-3-33
7--5-5-3---------44--3-746014-
4-4---552----54----58052------
-4+1--2---3---21--2-42-3-35-3-
---3642-3-5-56-3-1--5-232-----

Generation = 16, Population = 310.
-7--5---7-------55-----7281---
--0-5----3-665--2---2-542----4
--22621--4-3---3------1---2214
1-64---6--65-------05-----6---
---------2-3421-------243---3-
------34---66--2+-08-------023
5--5-3-4---2-23-4--9-------7-1
-43--6------355--1-4-----3----
2-5---+34--6--5-6--5---73180--
-635--5-343---2-3---43--6-----
------3------053-3-25-----13--
5--1-4-4----------5-----------
-7-443--4-61145---3----61-61-2
-----1-------5--134-53---3--7-
14-2--231--1-+5-2-4--5--3-846-
8-5--0-----32--6153------9----
2-16-1--3-35---14--33-----67--
54-36-41----5--2941-3--12--33-
-4--85-5--2--83-----11555---3-
-----6----41----1-4714-30-1---
6-344-------13--52--15---3-323
52-2-6-32-31--22534----6----0-
25-46-5-------427-2--4------35
------------3---1-41-5---6---3
---75557--916-4-23-7---4141-32
-6-----0-----3-----46-53------
23--------71-8-5--3-7----16---

*** Life<FredkinCell> 14x21 ***

Generation = 0, Population = 97.
--------00-0----0-0--
---00-00-00----------
--0-0-0000---------0-
00-------0----------0
000--0---00---000----
00----0-0----0---00-0
-0-0--00------0-000--
------0-0---------000
00-0-00------000-0-0-
--000---0--0----0-00-
-000-0--------0--0---
0---------0---0------
0---000-0---00--0-00-
-------000-00--0---00

*** Life<FredkinCell> 4x24 ***

Generation = 0, Population = 7.
-----0-------0----------
------------------0-----
---------00-------------
-------------0-0--------

*** Life<FredkinCell> 19x14 ***

Generation = 0, Population = 92.
00----00-0----
----0--0-0---0
----00--0--0--
----000-0000--
-00-000000-0--
-----0----0--0
-00---0--0--0-
--0-0--000-0-0
0-0-000------0
-000-0-0--0--0
--0-00--0-0---
0------0------
---------0--00
----0-0---00--
--00-000-----0
--0--0---0-0--
-0---0--0-0--0
-----0-----0-0
----0---0-0---

Generation = 5, Population = 139.
1343--3-0222-2
--1-50----2-0-
0-215-0--213--
11-1---2---343
-512015--11-4-
0031-52011310-
-5--0-2---1112
4---300100-121
-1-1--14024---
-2----11----2-
0--43-22-1--0-
1-----2----10-
-2--42--11---2
3202-2-0--1311
-2-5---5-----0
-210033--321-0
-----310121---
-1---31---2--1
23-----10010-2

Generation = 10, Population = 133.
2--5---0-35-2-
20--6-2-3124-3
-2-45-1--54-11
3-3-3-553-245-
-6--03------62
22---84--636-0
1--2-13--5-214
61------1---33
-4---2352-52--
---51----1-1--
51-----2-131--
33-4-24-1--4--
2--1-32-44-1--
821514--1134--
------4+----42
222-0---2-54-1
1-2-2---1-2154
1-31-42---3--2
33--22--3-4--7

Generation = 15, Population = 128.
3---2----66735
--33-3--54493-
6-7--2---853-1
-33442-6--3--5
3----3--25--62
-5-33-5-2----3
-----2--2833-7
----50-4----4-
---2343--38-43
--6-3---042-5-
--365--22233--
----6-522-0--5
3-3----17--1--
+3--25---44545
-2-+4--+---4-3
-3461--3--6---
13424-52-5545-
--34------41--
3--14505--9---

*** Life<FredkinCell> 7x13 ***

Generation = 0, Population = 33.
-0------00-0-
----00-------
00---0--0--00
--0-----0-00-
0---0-000-0--
0-0--0--00-0-
0-0---0--0-0-

Generation = 3, Population = 53.
-001-21--1-12
00-2---11-110
13-0-1-0101--
00-0-0200011-
3--01---303-0
00-21-2--10--
----100-0--1-

Generation = 6, Population = 42.
11-10----2-1-
--22--12-1-4-
24-01-0---2--
3-1----31--20
31-32-304-600
0-1--0--22-12
-----------2-

Generation = 9, Population = 45.
4-0-----13-22
03531---12-5-
----44--3-303
4022-------2-
--0--061--911
3-1---413-022
-1-----1232--

Generation = 12, Population = 48.
731-----1---5
--8321-5-33-1
3-1247-2---04
--53--451--22
--0-51-152+2-
-32-315--415-
----10--33---

Generation = 15, Population = 46.
--21-7-42--4-
-----1182-6-2
--235842-451-
7064----20-52
---462----+--
-424-162-----
3-121-03-3---

Generation = 18, Population = 38.
--3--8--35047
1-+---4-3--6-
--266-7-548-7
--75--------3
6-2------4---
-55-41-34-26-
4---2-0---4--

*** Life<FredkinCell> 13x2 ***

Generation = 0, Population = 17.
--
00
00
--
0-
00
-0
00
0-
0-
-0
00
00

Generation = 1, Population = 9.
00
--
--
-0
1-
--
0-
--
--
1-
01
-1
--

Generation = 2, Population = 11.
11
00
-0
--
--
--
-0
0-
0-
2-
--
-2
-0

Generation = 3, Population = 14.
--
-1
-1
-0
--
-0
--
1-
-0
30
01
03
01

Generation = 4, Population = 16.
-1
02
0-
01
--
0-
00
--
01
-1
12
14
--

Generation = 5, Population = 11.
-2
--
-1
-2
-0
1-
-1
--
1-
3-
-3
--
01
